14681
378
1440
714
7491
7348
8655
6291
5948
7296
12539
8184
3974
507
9958
506
12897
587
10659
7985
7085
8875
13123
13848
4896
7281
8109
5878
10116
1948
10248
471
14345
12409
1210
1263
5631
7269
4631
12875
