733
2812
7294
8655
12341
11215
12938
14475
13421
4393
8606
8329
1441
11265
7931
8903
11857
6305
3554
6349
3361
11376
3247
9685
4097
7823
11730
8186
7236
7797
5585
7759
7045
5621
12685
2586
14277
5189
565
12482
8234
5144
3374
12980
7903
590
8693
253
157
3489
13533
15079
11593
6774
501
4115
8742
6003
13396
11308
7285
9267
5762
3164
9294
1250
6709
574
10575
13630
