11714
11388
8361
3958
2861
11734
5334
7754
13968
2590
1427
5351
14569
11522
6074
8868
3133
14406
3865
8705
1280
11629
11764
100
13291
14922
6605
13859
14990
2782
14280
6067
6141
10169
6657
3107
6218
2628
8323
10593
2776
3318
11733
15145
12980
10897
8308
10923
10093
6025
34
7544
6839
1947
14663
3091
14503
14127
2510
1890
7962
1671
11517
12203
7541
2818
12683
6052
14729
3811
1483
5616
8329
8980
8306
11218
15192
6011
10917
6526
7313
59
3462
7339
10377
