13737
4159
9409
12121
7860
3254
15073
14772
15001
7645
1110
9636
6497
2809
13176
13874
2626
13156
8941
13430
2262
5530
7879
5041
2744
3591
6291
2720
11109
12092
580
2894
13952
1315
15036
1007
13440
9039
9866
9203
6699
6285
9691
1785
5270
