1164
11114
12362
2559
11497
5517
15088
9848
7570
3178
4523
455
5924
5821
14472
10972
8183
3093
8798
168
6133
12018
15108
13441
5440
10985
3440
3501
9074
9118
11384
5223
7409
15164
13838
11187
1654
11540
13890
727
1527
6263
10341
11890
13916
8179
5501
2189
11786
7008
9302
13031
2700
8376
5487
13853
5467
4768
1513
13619
8256
3236
9217
7895
2227
