14979
7112
3580
11861
7223
1570
2777
14636
6062
9440
4164
6076
4347
6016
10905
816
14505
6879
15191
1334
164
13728
9041
4432
2390
9642
2807
1523
12132
3695
12221
7930
7554
6641
4195
2991
2439
15113
7448
5795
7074
9351
13554
1349
14258
9217
13796
11167
5332
6862
4355
11734
9907
10712
12919
11634
7504
3331
5428
14803
825
4323
13684
8700
6055
7046
11986
7066
9473
4447
10684
3404
7381
935
7094
4987
1670
14183
12089
432
6216
1198
14917
12900
10461
15008
2581
12537
9338
13622
587
14428
14871
6398
6745
