5708
12655
2626
6161
2861
13900
12675
5989
10568
10350
9023
2453
11771
6299
5817
7614
6228
8026
9619
9836
13640
2221
13503
6403
6581
13150
3290
2983
11244
3020
8359
13659
10915
2446
905
1660
7482
8398
929
8487
14035
13464
14589
11705
11607
1255
852
