31324 125683 242898 131381 146236 57979 156084 413466 333548 202503 301694 167229 298604 224812 304003 10969 256568 174959 66479 26660 338596 14082 193064 368404 319381 208175 313627 76377 330653 190192 271805 45510 190773 196152 245661 283538 263598 289386 195597 242637 137197 312566 246315 155997 65132 14111 393142 260796 385637 19733 339220 381917 141978 44762 71365 133160 93054 184931 42291 156531 296512 252690 274848 90174 341760 18370 244614 421745 80628 208208 298305 183841 289007 339374 147419 279112 333128 424801 59598 158583 17057 50521 150368 141410 269568 190766 415177 276740 216811 26700 91000 71390 417406 191997 197796 349111 268319 86763 279844 109779 
98065 127666 85439 138268 86674 150770 31001 235099 173498 88422 156124 147707 86324 142357 174964 272770 70083 226410 125068 13662 124654 318513 222131 286326 39425 70023 276515 172251 294103 77108 332377 346757 237991 109219 229337 261374 179674 304624 228413 308304 63867 230404 148924 134569 246692 5886 81947 373283 850 43838 108396 371574 331502 350691 378400 285212 374946 134243 56565 13244 209727 8206 86724 114591 151190 31544 308270 417421 88799 95456 406543 393699 24419 310816 80305 232204 369434 376041 226152 330877 235150 342327 85454 394592 140869 144762 197813 100296 30405 42073 34193 269634 401239 121840 366496 188222 194058 156574 140980 415121 
105423 84232 4279 164105 368538 356100 337259 363789 115672 331238 3799 387437 345788 379195 236997 343405 146838 164613 125315 177635 392933 39461 268639 358897 416857 13448 241564 132294 333980 403884 375256 180190 25370 87040 56635 423500 351399 23021 327995 59805 221260 6057 413936 410805 345071 287296 236197 66703 136613 299334 166416 211386 40678 90717 200143 121030 200587 203221 168141 374158 280303 418054 235910 255055 254730 302317 216310 378002 424550 290726 384375 114629 338832 306808 160833 147539 299070 159004 199018 88469 241552 371372 133048 83055 51287 49135 2406 233945 211764 4533 199244 145045 73349 1947 310058 385336 327373 41633 389288 222273 
